…
- `docker_containers()`: Returns a tibble of active containers.

``` r
containr::docker_containers() |> dplyr::select(Command, CreatedAt, Image, Names, Ports, Status)
#> # A tibble: 1 × 6
#>   Command CreatedAt                      Image          Names       Ports Status
#>   <chr>   <chr>                          <chr>          <chr>       <chr> <chr> 
#> 1 /init   2022-12-02 13:42:07 +1100 AEDT rstudio_pandoc rstudio_pa… 127.… Up 30…
```

- `docker_search("rstudio")`: Returns a tibble of search results.

``` r
containr::docker_search("rocker")
#> # A tibble: 25 × 5
#>    Name               Description                        StarC…¹ IsOff…² IsAut…³
#>    <chr>              <chr>                                <int> <lgl>   <chr>  
#>  1 rocker/rstudio     "RStudio Server image"                 402 NA      [OK]   
#>  2 rocker/shiny       ""                                     172 NA      [OK]   
#>  3 rocker/tidyverse   "Version-stable build of R, rstud…     158 NA      [OK]   
#>  4 rocker/r-base      "Basic R for Rocker And Official …      81 NA      [OK]   
#>  5 rocker/verse       "Adds tex & related publishing pa…      64 NA      [OK]   
#>  6 rocker/r-ver       "Reproducible builds to fixed ver…      50 NA      [OK]   
#>  7 rocker/shiny-verse "Rocker Shiny image + Tidyverse R…      45 NA      [OK]   
#>  8 rocker/geospatial  "Docker-based Geospatial toolkit …      44 NA      [OK]   
#>  9 rocker/r-devel     ""                                      22 NA      [OK]   
#> 10 rocker/ropensci    ""                                      22 NA      [OK]   
#> # … with 15 more rows, and abbreviated variable names ¹​StarCount, ²​IsOfficial,
#> #   ³​IsAutomated
```
…
